{
  "testId" : "1-testzazadaci.gspec",
  "name" : "testZaZadaci.gspec",
  "report" : {
    "nodes" : [ {
      "name" : "Simple check",
      "status" : "info",
      "nodes" : [ {
        "name" : "check  testZaZadaci.gspec --url http://localhost/zadaci.html --size 1024x768 --htmlreport izvjestajZaZadaci",
        "status" : "info",
        "nodes" : [ {
          "name" : "Check layout: testZaZadaci.gspec included tags: ",
          "status" : "info",
          "time" : 1541442455672,
          "sections" : [ {
            "name" : "Header section",
            "place" : {
              "filePath" : "testZaZadaci.gspec",
              "lineNumber" : 17
            },
            "objects" : [ {
              "name" : "header",
              "specs" : [ {
                "status" : "info",
                "place" : {
                  "filePath" : "testZaZadaci.gspec",
                  "lineNumber" : 19
                },
                "name" : "inside zadaci",
                "highlight" : [ "header", "zadaci" ]
              }, {
                "status" : "info",
                "place" : {
                  "filePath" : "testZaZadaci.gspec",
                  "lineNumber" : 20
                },
                "name" : "above polovina",
                "highlight" : [ "header", "polovina" ]
              }, {
                "status" : "info",
                "place" : {
                  "filePath" : "testZaZadaci.gspec",
                  "lineNumber" : 21
                },
                "name" : "above cetvrtina",
                "highlight" : [ "header", "cetvrtina" ]
              } ]
            }, {
              "name" : "logo",
              "specs" : [ {
                "status" : "info",
                "place" : {
                  "filePath" : "testZaZadaci.gspec",
                  "lineNumber" : 23
                },
                "name" : "inside header",
                "highlight" : [ "logo", "header" ]
              } ]
            }, {
              "name" : "h1",
              "specs" : [ {
                "status" : "info",
                "place" : {
                  "filePath" : "testZaZadaci.gspec",
                  "lineNumber" : 25
                },
                "name" : "inside header",
                "highlight" : [ "h1", "header" ]
              } ]
            } ]
          }, {
            "name" : "Meni section",
            "place" : {
              "filePath" : "testZaZadaci.gspec",
              "lineNumber" : 26
            },
            "objects" : [ {
              "name" : "meni",
              "specs" : [ {
                "status" : "info",
                "place" : {
                  "filePath" : "testZaZadaci.gspec",
                  "lineNumber" : 28
                },
                "name" : "inside header",
                "highlight" : [ "meni", "header" ]
              }, {
                "status" : "info",
                "place" : {
                  "filePath" : "testZaZadaci.gspec",
                  "lineNumber" : 29
                },
                "name" : "above polovina",
                "highlight" : [ "meni", "polovina" ]
              }, {
                "status" : "info",
                "place" : {
                  "filePath" : "testZaZadaci.gspec",
                  "lineNumber" : 30
                },
                "name" : "above cetvrtina",
                "highlight" : [ "meni", "cetvrtina" ]
              } ]
            } ]
          }, {
            "name" : "Main section",
            "place" : {
              "filePath" : "testZaZadaci.gspec",
              "lineNumber" : 31
            },
            "objects" : [ {
              "name" : "polovina",
              "specs" : [ {
                "status" : "info",
                "place" : {
                  "filePath" : "testZaZadaci.gspec",
                  "lineNumber" : 33
                },
                "name" : "inside zadaci",
                "highlight" : [ "polovina", "zadaci" ]
              }, {
                "status" : "info",
                "place" : {
                  "filePath" : "testZaZadaci.gspec",
                  "lineNumber" : 34
                },
                "name" : "above footer",
                "highlight" : [ "polovina", "footer" ]
              }, {
                "status" : "info",
                "place" : {
                  "filePath" : "testZaZadaci.gspec",
                  "lineNumber" : 35
                },
                "name" : "below meni",
                "highlight" : [ "polovina", "meni" ]
              }, {
                "status" : "info",
                "place" : {
                  "filePath" : "testZaZadaci.gspec",
                  "lineNumber" : 36
                },
                "name" : "below header",
                "highlight" : [ "polovina", "header" ]
              }, {
                "status" : "info",
                "place" : {
                  "filePath" : "testZaZadaci.gspec",
                  "lineNumber" : 37
                },
                "name" : "right-of cetvrtina",
                "highlight" : [ "polovina", "cetvrtina" ]
              }, {
                "status" : "info",
                "place" : {
                  "filePath" : "testZaZadaci.gspec",
                  "lineNumber" : 38
                },
                "name" : "width 49 to 51 % of zadaci/width",
                "highlight" : [ "polovina" ]
              } ]
            }, {
              "name" : "tekst",
              "specs" : [ {
                "status" : "info",
                "place" : {
                  "filePath" : "testZaZadaci.gspec",
                  "lineNumber" : 40
                },
                "name" : "inside forma",
                "highlight" : [ "tekst", "forma" ]
              } ]
            }, {
              "name" : "dugme",
              "specs" : [ {
                "status" : "info",
                "place" : {
                  "filePath" : "testZaZadaci.gspec",
                  "lineNumber" : 42
                },
                "name" : "inside forma",
                "highlight" : [ "dugme", "forma" ]
              } ]
            }, {
              "name" : "item",
              "specs" : [ {
                "status" : "info",
                "place" : {
                  "filePath" : "testZaZadaci.gspec",
                  "lineNumber" : 44
                },
                "name" : "inside folder",
                "highlight" : [ "item", "folder" ]
              } ]
            }, {
              "name" : "cetvrtina",
              "specs" : [ {
                "status" : "info",
                "place" : {
                  "filePath" : "testZaZadaci.gspec",
                  "lineNumber" : 46
                },
                "name" : "inside zadaci",
                "highlight" : [ "cetvrtina", "zadaci" ]
              }, {
                "status" : "info",
                "place" : {
                  "filePath" : "testZaZadaci.gspec",
                  "lineNumber" : 47
                },
                "name" : "above footer",
                "highlight" : [ "cetvrtina", "footer" ]
              }, {
                "status" : "info",
                "place" : {
                  "filePath" : "testZaZadaci.gspec",
                  "lineNumber" : 48
                },
                "name" : "below meni",
                "highlight" : [ "cetvrtina", "meni" ]
              }, {
                "status" : "info",
                "place" : {
                  "filePath" : "testZaZadaci.gspec",
                  "lineNumber" : 49
                },
                "name" : "below header",
                "highlight" : [ "cetvrtina", "header" ]
              }, {
                "status" : "info",
                "place" : {
                  "filePath" : "testZaZadaci.gspec",
                  "lineNumber" : 50
                },
                "name" : "left-of polovina",
                "highlight" : [ "cetvrtina", "polovina" ]
              }, {
                "status" : "info",
                "place" : {
                  "filePath" : "testZaZadaci.gspec",
                  "lineNumber" : 51
                },
                "name" : "width 24 to 26 % of zadaci/width",
                "highlight" : [ "cetvrtina" ]
              } ]
            } ]
          }, {
            "name" : "Footer section",
            "place" : {
              "filePath" : "testZaZadaci.gspec",
              "lineNumber" : 52
            },
            "objects" : [ {
              "name" : "footer",
              "specs" : [ {
                "status" : "info",
                "place" : {
                  "filePath" : "testZaZadaci.gspec",
                  "lineNumber" : 54
                },
                "name" : "below polovina",
                "highlight" : [ "footer", "polovina" ]
              }, {
                "status" : "info",
                "place" : {
                  "filePath" : "testZaZadaci.gspec",
                  "lineNumber" : 55
                },
                "name" : "below cetvrtina",
                "highlight" : [ "footer", "cetvrtina" ]
              } ]
            } ]
          } ],
          "objects" : {
            "meni" : {
              "area" : [ 0, 78, 996, 46 ]
            },
            "item" : {
              "area" : [ 602, 202, 80, 72 ]
            },
            "footer" : {
              "area" : [ 0, 632, 996, 89 ]
            },
            "h1" : {
              "area" : [ 769, 19, 216, 36 ]
            },
            "tekst" : {
              "area" : [ 320, 203, 106, 20 ]
            },
            "forma" : {
              "area" : [ 249, 203, 249, 51 ]
            },
            "cetvrtina" : {
              "area" : [ 0, 137, 249, 495 ]
            },
            "folder" : {
              "area" : [ 595, 147, 303, 227 ]
            },
            "header" : {
              "area" : [ 0, 0, 996, 137 ]
            },
            "logo" : {
              "area" : [ 0, 0, 54, 54 ]
            },
            "dugme" : {
              "area" : [ 319, 228, 104, 20 ]
            },
            "polovina" : {
              "area" : [ 498, 137, 498, 495 ]
            },
            "zadaci" : {
              "area" : [ 0, 0, 996, 688 ]
            }
          },
          "screenshot" : "layout-1-screenshot.png",
          "type" : "layout"
        } ],
        "time" : 1541442452281,
        "type" : "node"
      } ],
      "time" : 1541442445775,
      "type" : "node"
    } ]
  }
}