{
  "testId" : "1-testzastudentimanjeod600.gspec",
  "name" : "testZaStudentiManjeOd600.gspec",
  "report" : {
    "nodes" : [ {
      "name" : "Simple check",
      "status" : "info",
      "nodes" : [ {
        "name" : "check  testZaStudentiManjeOd600.gspec --url http://localhost/studenti.html --size 500x768 --htmlreport izvjestajZaStudentiManjeOd600",
        "status" : "info",
        "nodes" : [ {
          "name" : "Check layout: testZaStudentiManjeOd600.gspec included tags: ",
          "status" : "info",
          "time" : 1541442354326,
          "sections" : [ {
            "name" : "Header section",
            "place" : {
              "filePath" : "testZaStudentiManjeOd600.gspec",
              "lineNumber" : 11
            },
            "objects" : [ {
              "name" : "header",
              "specs" : [ {
                "status" : "info",
                "place" : {
                  "filePath" : "testZaStudentiManjeOd600.gspec",
                  "lineNumber" : 13
                },
                "name" : "inside studenti",
                "highlight" : [ "header", "studenti" ]
              } ]
            }, {
              "name" : "logo",
              "specs" : [ {
                "status" : "info",
                "place" : {
                  "filePath" : "testZaStudentiManjeOd600.gspec",
                  "lineNumber" : 15
                },
                "name" : "inside header",
                "highlight" : [ "logo", "header" ]
              } ]
            }, {
              "name" : "h1",
              "specs" : [ {
                "status" : "info",
                "place" : {
                  "filePath" : "testZaStudentiManjeOd600.gspec",
                  "lineNumber" : 17
                },
                "name" : "below meni",
                "highlight" : [ "h1", "meni" ]
              }, {
                "status" : "info",
                "place" : {
                  "filePath" : "testZaStudentiManjeOd600.gspec",
                  "lineNumber" : 18
                },
                "name" : "inside header",
                "highlight" : [ "h1", "header" ]
              } ]
            } ]
          }, {
            "name" : "Meni section",
            "place" : {
              "filePath" : "testZaStudentiManjeOd600.gspec",
              "lineNumber" : 19
            },
            "objects" : [ {
              "name" : "meni",
              "specs" : [ {
                "status" : "info",
                "place" : {
                  "filePath" : "testZaStudentiManjeOd600.gspec",
                  "lineNumber" : 21
                },
                "name" : "inside header",
                "highlight" : [ "meni", "header" ]
              }, {
                "status" : "info",
                "place" : {
                  "filePath" : "testZaStudentiManjeOd600.gspec",
                  "lineNumber" : 22
                },
                "name" : "above side",
                "highlight" : [ "meni", "side" ]
              }, {
                "status" : "info",
                "place" : {
                  "filePath" : "testZaStudentiManjeOd600.gspec",
                  "lineNumber" : 23
                },
                "name" : "above h1",
                "highlight" : [ "meni", "h1" ]
              } ]
            } ]
          }, {
            "name" : "Main section",
            "place" : {
              "filePath" : "testZaStudentiManjeOd600.gspec",
              "lineNumber" : 24
            },
            "objects" : [ {
              "name" : "glavniSadrzaj",
              "specs" : [ {
                "status" : "info",
                "place" : {
                  "filePath" : "testZaStudentiManjeOd600.gspec",
                  "lineNumber" : 26
                },
                "name" : "inside studenti",
                "highlight" : [ "glavniSadrzaj", "studenti" ]
              }, {
                "status" : "info",
                "place" : {
                  "filePath" : "testZaStudentiManjeOd600.gspec",
                  "lineNumber" : 27
                },
                "name" : "above footer",
                "highlight" : [ "glavniSadrzaj", "footer" ]
              }, {
                "status" : "info",
                "place" : {
                  "filePath" : "testZaStudentiManjeOd600.gspec",
                  "lineNumber" : 28
                },
                "name" : "below side",
                "highlight" : [ "glavniSadrzaj", "side" ]
              }, {
                "status" : "info",
                "place" : {
                  "filePath" : "testZaStudentiManjeOd600.gspec",
                  "lineNumber" : 29
                },
                "name" : "width 100 % of studenti/width",
                "highlight" : [ "glavniSadrzaj" ]
              } ]
            }, {
              "name" : "side",
              "specs" : [ {
                "status" : "info",
                "place" : {
                  "filePath" : "testZaStudentiManjeOd600.gspec",
                  "lineNumber" : 31
                },
                "name" : "inside studenti",
                "highlight" : [ "side", "studenti" ]
              }, {
                "status" : "info",
                "place" : {
                  "filePath" : "testZaStudentiManjeOd600.gspec",
                  "lineNumber" : 32
                },
                "name" : "above glavniSadrzaj",
                "highlight" : [ "side", "glavniSadrzaj" ]
              }, {
                "status" : "info",
                "place" : {
                  "filePath" : "testZaStudentiManjeOd600.gspec",
                  "lineNumber" : 33
                },
                "name" : "below meni",
                "highlight" : [ "side", "meni" ]
              }, {
                "status" : "info",
                "place" : {
                  "filePath" : "testZaStudentiManjeOd600.gspec",
                  "lineNumber" : 34
                },
                "name" : "width 100 % of studenti/width",
                "highlight" : [ "side" ]
              } ]
            } ]
          }, {
            "name" : "Footer section",
            "place" : {
              "filePath" : "testZaStudentiManjeOd600.gspec",
              "lineNumber" : 35
            },
            "objects" : [ {
              "name" : "footer",
              "specs" : [ {
                "status" : "info",
                "place" : {
                  "filePath" : "testZaStudentiManjeOd600.gspec",
                  "lineNumber" : 37
                },
                "name" : "below glavniSadrzaj",
                "highlight" : [ "footer", "glavniSadrzaj" ]
              } ]
            } ]
          } ],
          "objects" : {
            "meni" : {
              "area" : [ 0, 0, 472, 104 ]
            },
            "side" : {
              "area" : [ 0, 166, 472, 233 ]
            },
            "glavniSadrzaj" : {
              "area" : [ 0, 400, 472, 261 ]
            },
            "footer" : {
              "area" : [ 0, 662, 472, 55 ]
            },
            "header" : {
              "area" : [ 0, 0, 472, 172 ]
            },
            "logo" : {
              "area" : [ 0, 0, 32, 32 ]
            },
            "h1" : {
              "area" : [ 32, 120, 162, 22 ]
            },
            "studenti" : {
              "area" : [ 0, 0, 472, 688 ]
            }
          },
          "screenshot" : "layout-1-screenshot.png",
          "type" : "layout"
        } ],
        "time" : 1541442352094,
        "type" : "node"
      } ],
      "time" : 1541442345544,
      "type" : "node"
    } ]
  }
}